@startuml
!include template.puml

activate main


main -> ee : EE_EDROP_REGISTER_REQUEST
activate ee
deactivate main

ee -> ee : Peripheral connect
ee -> ee : Peripheral move drawer above QR code
ee -> ee : Peripheral lights
ee -> ee : Capture Image

ee -> ia : readCartridgeSN
activate ia
ia --> ee : catridgeSerialNumber
deactivate ia

ee -> ee : Peripheral move drawer above catridge south
ee -> ee : Peripheral lights
ee -> ee : Capture Image

ee -> ia : <!!! TODO NAME FOR CHECKING CARTRIDGE POSITION>
activate ia
ia --> ee : <!!! TODO NAME FOR CHECKING CARTRIDGE POSITION>
deactivate ia

ee -> ee : Peripheral move drawer above active area
ee -> ee : Peripheral lights
ee -> ee : Capture Image

ee -> ia : <!!! TODO NAME FOR CHECKING FIDUCIALS>
activate ia
ia --> ee : <!!! TODO NAME FOR CHECKING FIDUCIALS>
deactivate ia

ee --> main : EE_EDROP_REGISTER_RESPONSE
deactivate ee
activate main

main -> main : Update database

main -> wui : WUI_WORKFLOW_STATUS_NOTIFICATION
deactivate main

@enduml