@startuml

<style>
timingDiagram {
  LineColor black
  LineThickness 1
  .chart {
    LineThickness 1.5
  }
  highlight {
    HorizontalAlignment center
  }
}
</style>

scale 100 as 50 pixels

binary  "AFDAPI step" as afdapi <<chart>>
analog  "eDrop activation" as edrop <<chart>>
binary  "Peripheral" as peripheral <<chart>>
binary  "Camera" as camera <<chart>>
binary  "Image Analysis" as ia <<chart>>
binary  "Artemis" as art <<chart>>
binary  "Error Correction" as ec <<chart>>
concise "Step" as step


@0
afdapi is high
step is "N"

@20
afdapi is low
edrop is 0

@1000
edrop is 100
peripheral is high

@1010
peripheral is low
camera is high

@1090
camera is low
peripheral is high

@1100
ia is high

@1110
peripheral is low
camera is high

@1190
camera is low
peripheral is high

@1200
peripheral is low
ia is low
art is high

@1201
ia is high

@1300
ia is low
art is low
ec is high

@1400
ec is low
afdapi is high
edrop is 100
step is "N+1"

@1420
afdapi is low
edrop is 0



highlight 0 to 20 #plum;line:DimGrey
highlight 20 to 1000 #gold;line:DimGrey : eDrop settling time
highlight 1000 to 1400 #lightblue;line:DimGrey : Realtime budget for\nimage processing


highlight 1400 to 1420 #plum;line:DimGrey 
highlight 1420 to 1500 #gold;line:DimGrey

@enduml
