@startuml
!include template.puml

wui -> serverwss : import-run
activate serverwss
serverwss -> serverwss : ControlRunRESTHandler::importUSBRun

activate serverwss
serverwss -> core : mtImportUSBRunRequest

activate core
core -> core : InstrumentRunsHandler::getInstance().importSelectedRun

activate core
core -> core : DBAccessor::getInstance().createRun
activate core
deactivate core

core --> serverwss : mtImportUSBRunResponse
deactivate core
deactivate core
deactivate serverwss

serverwss --> wui : WSSImportUSBRunResponse
note right
Success
end note

serverwss --> wui : WSSCommandResponse
note right
Fail
end note

deactivate serverwss


@enduml