@startuml
!include template.puml


activate wui

wui -> serverwss : initExecution
deactivate wui
activate serverwss
serverwss -> serverwss : initExecutionRESTHandler::processWSRequest
activate serverwss
serverwss -> core : mtInitExecutionRequest
deactivate serverwss
deactivate serverwss

activate core
core -> core : ExperimentRun::getInstance()::startRun
activate core
core -> ee : mtInitExecutionRequest
activate ee
core --> stub : InitStartExecutionResult (fail)

activate stub
stub -> wui : InitStartExecutionResult (fail)
deactivate stub

' activate sendws
' sendws -> wui
' deactivate sendws

create rst
core -> rst
deactivate core
deactivate core



ee --> core : mtInitExecutionResponse

activate core
core --> stub : mtInitExecutionResponse
deactivate core

activate stub
stub --> wui : mtInitExecutionResponse
deactivate stub


ee --> core : mtGetExecutionStatus

activate core
core --> stub : mtGetExecutionStatus
deactivate core

activate stub
stub --> wui : mtGetExecutionStatus
deactivate stub

' !!! TODO: is this routing correct? Surely goes through another thread to send out?
' Also: mtGetExecutionStatus is converted to WSSExecutionState by APIMessenger.cpp::348


ee --> core : mtExperimentTimePlan

activate core
core -> core : CurrentRunHandler::getInstance()::updateTimePlan
activate core
core --> stub : mtExperimentTimePlan
deactivate core
deactivate core

activate stub
stub --> wui : mtExperimentTimePlan
deactivate stub

activate rst
rst -> rst
activate rst
rst -> ee : mtGetExecutionTimings
ee --> core : mtGetExecutionTimings

' !!! TODO: is this routing correct? Surely goes through another thread to send out?
' Also: mtGetExecutionStatus is converted to WSSExecutionState by APIMessenger.cpp::348

activate core
core -> core : CurrentRunHandler::getInstance()::updateRunTimings
activate core
core --> stub : mtExperimentTimePlan
deactivate core
deactivate core

activate stub
stub -> wui : mtExperimentTimePlan
deactivate stub




@enduml