@startuml
!$INC_MAIN = 1
!include template.puml


group Read Configuration
    activate apimain
    apimain -> apimain: ConfigStorage::getInstance()::loadConfig
    activate apimain

    apimain -> core : mtAPIConfigRequest

    activate core
    core --> apimain : mtAPIConfigResponse
    deactivate core

    deactivate apimain
end group

group Connect To Cloud
    apimain -> apimain : connectToCloud
    activate apimain

    create cloudws
    apimain -> cloudws

    activate cloudws
    deactivate apimain

    cloudws -> cloudws : WSClient::start
    activate cloudws
    cloudws -> nim : (connect)

    activate nim
    nim --> cloudws : ON_CONNECTION_LOGIN
    deactivate nim


    activate cloudws
    cloudws --> core : mtRegInfo
    note left
    This only parses instrument ID.
    Lots more info in ON_CONNECTION_LOGIN
    not passed to core
    end note
    deactivate cloudws

    activate core
    core -> core : DBAccessor::getInstance()::updateSystemConfig
    activate core
    deactivate core
    deactivate core

    cloudws -> cloudws : WSClient::sendConnectedState
    activate cloudws
    cloudws -> core : mtCloudConnectionState
    deactivate cloudws
    deactivate cloudws
    activate core
    core -> core : InstrumentStateHandler::getInstance().updateCloudConnectedState
    activate core
    core -->o stub : mtInstrumentState
    note right
    Note this message is not handled yet
    because the stubThread thread has not yet started
    end note
    deactivate core
    deactivate core

    create sendws
    cloudws -> sendws

    cloudws -> sendws : GETCONFIRMEDRUNS
    deactivate cloudws
    activate sendws
    sendws -> nim : GETCONFIRMEDRUNS
    deactivate sendws
    activate nim
    nim --> cloudws : (JSON response)
    deactivate nim

    activate cloudws
    cloudws -> cloudws : ContextStorage::getInstance().getContextByCloudId
    activate cloudws
    cloudws -> core : mtRunDetailsRequest
    deactivate cloudws
    deactivate cloudws
    activate core
    core -> core : InstrumentRunsHandler::getInstance().sendRunDetails
    activate core
    core -->o stub : mtRunDetailsResponse
    note right
    Note this message is not handled yet
    because the stubThread thread has not yet started
    end note
    deactivate core
    deactivate core
end group

group Start Web UI Server
    apimain -> apimain : startWSServer
    activate apimain

    create serverwss
    apimain -> serverwss

    create pingwss
    apimain -> pingwss

    create stub
    apimain -> stub
    stub -> stub : APIMessenger::getInstance()::loop

    deactivate apimain
    deactivate apimain


    activate stub
    stub -> serverwss : WSSInstrumentStateInfo
    deactivate stub
    note right
    This is the queued mtInstrumentState from core
    end note

    activate serverwss
    serverwss -> wui : WSSInstrumentStateInfo
    deactivate serverwss
    note left
    !!! TODO check for response
    end note


    activate stub
    stub -> serverwss : WSSRunDetailsResponse
    deactivate stub
    note right
    This is the queued mtRunDetailsRequest from core
    end note

    activate serverwss
    serverwss -> wui : WSSRunDetailsResponse
    deactivate serverwss
    note left
    !!! TODO check for response
    end note





    activate core

    core -> core : sendPeripheralStateRequest

    activate core
    core -> pe : mtPeripheralStateRequest
    deactivate core
    deactivate core

    activate pe
    pe --> core : mtPeripheralStateResponse
    deactivate pe

    activate core
    core -> core : InstrumentStateHandler::getInstance()::updateDrawerOpenState
    activate core
    core --> stub : mtInstrumentState

    deactivate core

    activate stub
    stub -> serverwss : WSSInstrumentStateInfo
    deactivate stub

    activate serverwss
    serverwss -> wui : WSSInstrumentStateInfo
    deactivate serverwss


    core -> core : InstrumentStateHandler::getInstance()::updateEDropConnectedState
    activate core
    core --> stub : mtInstrumentState
    deactivate core
    deactivate core

    activate stub
    stub -> serverwss : WSSInstrumentStateInfo
    deactivate stub

    activate serverwss
    serverwss -> wui : WSSInstrumentStateInfo
    deactivate serverwss


    group Start Ping Thread
        pingwss -> pingwss
        activate pingwss
        note right
        wssPingThread pings WebSocket interface to
        Nimbus once every 30 seconds. Only the first
        ping is shown on the diagram
        end note
        pingwss -> serverwss : WSSGenericMessage
        deactivate pingwss
        activate serverwss
        serverwss -> wui : WSSGenericMessage
        deactivate serverwss

        activate wui
        wui -> stub
        deactivate wui
        note right
        Unsure about the contents of this "pong" message
        end note
    end group

    group Web UI Connect
        wui -> serverwss : (connect)
        activate serverwss

        serverwss -> core : mtUIConnectedState
        activate core
        serverwss -> core : mtUserListRequest
        serverwss -> core : mtRunListRequest
        deactivate serverwss


        core -> core : UIStateHandler::getInstance()::sendNotification
        activate core
        core --> stub : mtInstrumentState
        deactivate core

        activate stub
        stub --> serverwss : WSSInstrumentStateInfo
        deactivate stub

        activate serverwss
        serverwss --> wui : JSON (ui-state)
        deactivate serverwss


        core -> core : UserListHandler::getInstance().getUsers
        activate core
        core --> stub : mtUserListResponse
        deactivate core

        activate stub
        stub --> serverwss : RESTUsersList
        deactivate stub

        activate serverwss
        serverwss --> wui : JSON (users)
        deactivate serverwss


        core -> core : ControlRunRESTHandler::createWSRunDetailsResponse
        activate core
        core --> stub : mtRunListResponse
        deactivate core

        deactivate core

        activate stub
        stub --> serverwss : WSSRunList
        deactivate stub

        activate serverwss
        serverwss --> wui : JSON (runs)
        deactivate serverwss

    end group

end group


@enduml